…
### 6.6 Top host

The top host has 340 listings.

``` r
listings %>% 
  group_by(host_id) %>% 
  select(host_id, host_name, calculated_host_listings_count) %>% 
  arrange(desc(calculated_host_listings_count))
```

    ## # A tibble: 8,047 x 3
    ## # Groups:   host_id [2,561]
    ##     host_id host_name calculated_host_listings_count
    ##       <dbl> <chr>                              <dbl>
    ##  1 66406177 Jay                                  340
    ##  2 66406177 Jay                                  340
    ##  3 66406177 Jay                                  340
    ##  4 66406177 Jay                                  340
    ##  5 66406177 Jay                                  340
    ##  6 66406177 Jay                                  340
    ##  7 66406177 Jay                                  340
    ##  8 66406177 Jay                                  340
    ##  9 66406177 Jay                                  340
    ## 10 66406177 Jay                                  340
    ## # … with 8,037 more rows
…
