4 Preliminary Analysis | Exploring the Airbnb Market in Singapore
…
listings <- listings %>% 
  mutate(property_type = as_factor(property_type), 
         planning_area = as_factor(planning_area),
         planning_region = as_factor(planning_region),
         room_type = as_factor(room_type), 
         price= as.numeric(gsub("[\\$]", "", price)))

## Warning: NAs introduced by coercion

listings

## # A tibble: 7,713 x 24
##        id name  listing_url description host_id host_name host_since
##     <dbl> <chr> <chr>       <chr>         <dbl> <chr>     <date>    
##  1  49091 "COZ… https://ww… "This is R…  266763 Francesca 2010-10-20
##  2  50646 "Ple… https://ww… "Fully fur…  227796 Sujatha   2010-09-08
##  3  56334 "COZ… https://ww… "This is R…  266763 Francesca 2010-10-20
##  4  71609 "Ens… https://ww… "For 3 (We…  367042 Belinda   2011-01-29
##  5  71896 "B&B… https://ww… "Vocationa…  367042 Belinda   2011-01-29
##  6  71903 "Roo… https://ww… "Like your…  367042 Belinda   2011-01-29
##  7  71907 "3rd… https://ww… "Vocationa…  367042 Belinda   2011-01-29
##  8 117957 "Pri… https://ww… "Private R…  448620 Lynnity   2011-03-17
##  9 241503 "Lon… https://ww… "Stay in a… 1017645 Bianca    2011-08-25
## 10 241508 "Lon… https://ww… "Stay in a… 1017645 Bianca    2011-08-25
## # … with 7,703 more rows, and 17 more variables: host_response_time <chr>,
## #   host_response_rate <chr>, host_acceptance_rate <chr>,
## #   host_is_superhost <lgl>, host_listings_count <dbl>, property_type <fct>,
## #   room_type <fct>, price <dbl>, minimum_nights <dbl>, planning_area <fct>,
## #   planning_region <fct>, latitude <dbl>, longitude <dbl>,
## #   number_of_reviews <dbl>, number_of_reviews_ltm <dbl>,
## #   review_scores_rating <dbl>, reviews_per_month <dbl>
…
While we cannot ensure that every guest leaves a review, it can be used as a proxy to how many listings are flouting the law.

For example, in a given private home listing, one would expect that the number of reviews for that listing per month should be a maximum of 1 review every 3 months (i.e. approximately 0.33 reviews per month). For a HDB listing, this number would be 0.17 reviews per month.

However, as we can see from the summary of the descriptive statistics, the mean number of reviews per month for each listing is about 0.94, which is way higher than the expected number based on the law.

As the law on short-term accommodations was only implemented on 6 Feb 2017 (Wong, 2017), it would only be fair to consider the number of reviews after the law was implemented.

reviews_after_law_2017 <- reviews %>% 
  filter(date > "2017-02-06" & date < "2018-01-01" )

reviews_after_law_2017

## # A tibble: 16,277 x 6
##    listing_id      id date       reviewer_id reviewer_name comments             
##         <dbl>   <dbl> <date>           <dbl> <chr>         <chr>                
##  1      71896  1.82e8 2017-08-13   122046660 Rainier Paolo "The place was reall…
##  2      71903  1.36e8 2017-03-06   118189111 Lee           "Good for stay if yo…
##  3      71903  1.87e8 2017-08-27    70378982 Steve         "it was a quite nice…
##  4      71903  1.92e8 2017-09-08    92184943 Patrick       "Thank you very much…
##  5     241503  1.31e8 2017-02-07    75544959 Lili          "位于住宅区,交通便利,5分钟步行到地铁…
##  6     241503  1.32e8 2017-02-12    52156259 Jane          "The house is very g…
##  7     241503  1.32e8 2017-02-15    63292326 张瑜慧        "很棒的一次体验,交通方便,房间卫生很干…
##  8     241503  1.33e8 2017-02-20    95569642 丽年          "房东是个很优雅礼貌的美女,and al…
##  9     241503  1.34e8 2017-02-25    99030984 Tanya         "Never disappointed …
## 10     241503  1.35e8 2017-03-01    85029570 Yoshitaka     "comfortable stay in…
## # … with 16,267 more rows
…
reviews_after_law_2020<- reviews_after_law_2020 %>% 
  group_by(listing_id) %>% 
  count() %>% 
  left_join(reviews_after_law_2020, by="listing_id") %>% 
  mutate(reviews_per_month = n/3) # only 3 months considered

reviews_after_law <- rbind(reviews_after_law_2017, reviews_after_law_2018_2019, reviews_after_law_2020)

reviews_after_law <- reviews_after_law %>% 
  select(-n)

reviews_after_law

## # A tibble: 88,113 x 7
## # Groups:   listing_id [4,605]
##    listing_id     id date       reviewer_id reviewer_name comments
##         <dbl>  <dbl> <date>           <dbl> <chr>         <chr>   
##  1      71896 1.82e8 2017-08-13   122046660 Rainier Paolo "The pl…
##  2      71903 1.36e8 2017-03-06   118189111 Lee           "Good f…
##  3      71903 1.87e8 2017-08-27    70378982 Steve         "it was…
##  4      71903 1.92e8 2017-09-08    92184943 Patrick       "Thank …
##  5     241503 1.31e8 2017-02-07    75544959 Lili          "位于住宅区,…
##  6     241503 1.32e8 2017-02-12    52156259 Jane          "The ho…
##  7     241503 1.32e8 2017-02-15    63292326 张瑜慧        "很棒的一次体…
##  8     241503 1.33e8 2017-02-20    95569642 丽年          "房东是个很优…
##  9     241503 1.34e8 2017-02-25    99030984 Tanya         "Never …
## 10     241503 1.35e8 2017-03-01    85029570 Yoshitaka     "comfor…
## # … with 88,103 more rows, and 1 more variable: reviews_per_month <dbl>
…
