4 Visualising spatial distribution of Listings | Exploring the Airbnb Market in Singapore
…
In order to visualise areas where there are potentially more listings that are in violation of the law, we can group them based on the minimum length of stay, which is given by the minimum_nights variable. As it is not possible to distinguish between HDB flats and private homes, I used 90 days as the cut off point to differentiate listings that are compliant and those that are potentially errant. From the plot, it is clear that many listings are potentially illegal (red) as they require a minimum length of stay of less than 90 days. However, it is difficult to tell how the two types of listings vary between planning regions and neighbourhoods/planning areas.

Therefore, we can use a bar chart to visualise this.

length_stay <- listings %>% 
  mutate(length_of_stay = case_when(minimum_nights < 89 ~ "below_90", minimum_nights >88 ~"above_90")) %>% 
  select(planning_area, planning_region, length_of_stay) 

## Adding missing grouping variables: `host_id`

length_stay

## # A tibble: 7,713 x 4
## # Groups:   host_id [2,530]
##     host_id planning_area planning_region length_of_stay
##       <dbl> <fct>         <fct>           <chr>         
##  1 66406177 Marine Parade Central Region  below_90      
##  2 66406177 Downtown Core Central Region  below_90      
##  3 66406177 Marine Parade Central Region  below_90      
##  4 66406177 Clementi      West Region     below_90      
##  5 66406177 Downtown Core Central Region  below_90      
##  6 66406177 Clementi      West Region     below_90      
##  7 66406177 Downtown Core Central Region  below_90      
##  8 66406177 Marine Parade Central Region  below_90      
##  9 66406177 Clementi      West Region     below_90      
## 10 66406177 Downtown Core Central Region  below_90      
## # … with 7,703 more rows
…
